flores-claudia-m05-2-application-data_wrangling_tidyverse
…
1.1

# Convert to Tibble and Data Frame

# Convert built-in airquality to a tibble

air.tib <- as_tibble(airquality)

air.tib

# A tibble: 153 × 6
   Ozone Solar.R  Wind  Temp Month   Day
   <int>   <int> <dbl> <int> <int> <int>
 1    41     190   7.4    67     5     1
 2    36     118   8      72     5     2
 3    12     149  12.6    74     5     3
 4    18     313  11.5    62     5     4
 5    NA      NA  14.3    56     5     5
 6    28      NA  14.9    66     5     6
 7    23     299   8.6    65     5     7
 8    19      99  13.8    59     5     8
 9     8      19  20.1    61     5     9
10    NA     194   8.6    69     5    10
# ℹ 143 more rows
…
3.4

# Tidy the data using pivot_longer
relig_income_longer <- relig_income %>%
  pivot_longer(
    cols = -religion,
    names_to = "income",
    values_to = "count"
  ) %>%
  filter(income != "Don't know/refused")

relig_income_longer

# A tibble: 162 × 3
   religion income    count
   <chr>    <chr>     <dbl>
 1 Agnostic <$10k        27
 2 Agnostic $10-20k      34
 3 Agnostic $20-30k      60
 4 Agnostic $30-40k      81
 5 Agnostic $40-50k      76
 6 Agnostic $50-75k     137
 7 Agnostic $75-100k    122
 8 Agnostic $100-150k   109
 9 Agnostic >150k        84
10 Atheist  <$10k        12
# ℹ 152 more rows
…
The current data shape does not support my visualization goal because there is a single variable for both the income and rent metrics, which means that one name or state occupies more than one row. In order to support the goal, the data should be reshaped by using pivot_wider() in order to make the dataset wider. This will allow for the income metric and rent metric to have their own columns.

4.4

# Widen the metrics across unique rows per state
us_rent_income_wider <- us_rent_income %>%
  pivot_wider(
    names_from = variable,
    values_from = c(estimate, moe)
  )

us_rent_income_wider

# A tibble: 52 × 6
   GEOID NAME                 estimate_income estimate_rent moe_income moe_rent
   <chr> <chr>                          <dbl>         <dbl>      <dbl>    <dbl>
 1 01    Alabama                        24476           747        136        3
 2 02    Alaska                         32940          1200        508       13
 3 04    Arizona                        27517           972        148        4
 4 05    Arkansas                       23789           709        165        5
 5 06    California                     29454          1358        109        3
 6 08    Colorado                       32401          1125        109        5
 7 09    Connecticut                    35326          1123        195        5
 8 10    Delaware                       31560          1076        247       10
 9 11    District of Columbia           43198          1424        681       17
10 12    Florida                        25952          1077         70        3
# ℹ 42 more rows
…
